<?xml version="1.0" encoding="UTF-8"?>
<svg width="31px" height="31px" viewBox="0 0 31 31" version="1.1" xmlns="http://www.w3.org/2000/svg" xmlns:xlink="http://www.w3.org/1999/xlink">
    <!-- Generator: Sketch 46.2 (44496) - http://www.bohemiancoding.com/sketch -->
    <title>ico-user</title>
    <desc>Created with Sketch.</desc>
    <defs></defs>
    <g id="Page-1" stroke="none" stroke-width="1" fill="none" fill-rule="evenodd">
        <g id="ico-user" fill-rule="nonzero">
            <circle id="Oval" fill="#92B558" cx="15.5" cy="15.5" r="15.5"></circle>
            <path d="M19.138,13.21 L19.138,12.365 C18.8714884,12.3387858 18.6682559,12.1147976 18.668,11.847 L18.668,11.142 C18.668,9.483 17.629,8.606 15.662,8.606 C13.178,8.606 12.656,9.985 12.656,11.142 L12.656,11.847 C12.656211,12.1149779 12.4527363,12.339233 12.186,12.365 L12.186,13.21 C12.383597,13.2292825 12.5530602,13.3591914 12.623,13.545 C12.9317663,14.3994952 13.3065646,15.2286653 13.744,16.025 L13.783,16.084 C14.042,16.478 14.365,16.969 15.661,16.969 C16.957,16.969 17.28,16.478 17.54,16.084 L17.579,16.025 C18.016646,15.2277331 18.391449,14.3975495 18.7,13.542 C18.7706133,13.3567661 18.9405762,13.2279358 19.138,13.21 L19.138,13.21 Z M12.838,18.95 C11.723,18.95 9.738,19.634 9.587,20.412 L9.355,21.806 C9.3130354,22.0567421 9.09622913,22.2405837 8.842,22.241 C8.81319715,22.2408544 8.78444726,22.2385143 8.756,22.234 C8.61966076,22.2112274 8.49795946,22.135208 8.41768705,22.0226766 C8.33741463,21.9101451 8.30515152,21.7703266 8.328,21.634 L8.563,20.223 C8.894,18.569 11.716,17.908 12.838,17.908 C13.1254642,17.908 13.3585,18.1410358 13.3585,18.4285 C13.3585,18.7159642 13.1254642,18.949 12.838,18.949 L12.838,18.95 Z M15.659,18.01 C14.5570438,18.1362654 13.48286,17.6073824 12.911,16.657 L12.875,16.603 C12.4327831,15.8240859 12.0548624,15.0103858 11.745,14.17 C11.3810044,14.0134192 11.145105,13.6552453 11.145,13.259 L11.145,12.319 C11.1484224,11.9777708 11.3256132,11.6618434 11.615,11.481 L11.615,11.142 C11.615,8.902 13.128,7.565 15.661,7.565 C18.194,7.565 19.707,8.902 19.707,11.142 L19.707,11.475 C19.9990204,11.6557056 20.1768089,11.9745901 20.177,12.318 L20.177,13.258 C20.176895,13.6542453 19.9409956,14.0124192 19.577,14.169 C19.2667219,15.0097 18.8884709,15.8237256 18.446,16.603 L18.411,16.657 C17.8388051,17.6075452 16.7642531,18.1364171 15.662,18.01 L15.659,18.01 Z M22.559,22.234 C22.5305702,22.238658 22.5018089,22.2409991 22.473,22.241 C22.2187709,22.2405837 22.0019646,22.0567421 21.96,21.806 L21.725,20.396 C21.572,19.63 19.81,18.96 18.477,18.96 C18.1895358,18.96 17.9565,18.7269642 17.9565,18.4395 C17.9565,18.1520358 18.1895358,17.919 18.477,17.919 C20.077,17.919 22.45,18.719 22.748,20.208 L22.986,21.635 C23.033255,21.9162377 22.84562,22.1832053 22.565,22.234 L22.559,22.234 Z" id="Shape" fill="#FFFFFF"></path>
        </g>
    </g>
</svg>