<svg xmlns="http://www.w3.org/2000/svg" viewBox="11896.492 -1598 10.516 13.866">
  <defs>
    <style>
      .cls-1 {
        fill: #555;
      }
    </style>
  </defs>
  <path id="Path_354" data-name="Path 354" class="cls-1" d="M21.451,7.235v7.651H22.4V7.235L23.7,8.54l.669-.669L21.924,5.423,19.476,7.871l.669.669Zm4.627,2.781h-2.6v.946h2.6a.158.158,0,0,1,.158.158v7.065a.158.158,0,0,1-.158.158H17.77a.158.158,0,0,1-.158-.158V11.12a.158.158,0,0,1,.158-.158h2.6v-.946h-2.6a1.106,1.106,0,0,0-1.1,1.1v7.065a1.106,1.106,0,0,0,1.1,1.1h8.307a1.106,1.106,0,0,0,1.1-1.1V11.12A1.106,1.106,0,0,0,26.078,10.016Z" transform="translate(11879.826 -1603.423)"/>
</svg>
