<svg xmlns="http://www.w3.org/2000/svg" viewBox="5755.409 759.958 25.19 27.568">
  <defs>
    <style>
      .cls-1 {
        fill: #ccc;
      }
    </style>
  </defs>
  <g id="Group_245" data-name="Group 245" transform="translate(4681 454)">
    <path id="Path_471" data-name="Path 471" class="cls-1" d="M50.51,34.172a2.156,2.156,0,0,0-.93-.509,6.317,6.317,0,0,0-1.371-.107h-.05l-.251,0c-.149,0-.3,0-.449,0-.315,0-.577.007-.82.024l-.2.013a3.306,3.306,0,0,0-1.861.5,10.376,10.376,0,0,1-2.244,0,3.282,3.282,0,0,0-1.863-.5l-.2-.013c-.244-.017-.5-.024-.82-.024-.15,0-.3,0-.449,0l-.25,0H38.7a6.286,6.286,0,0,0-1.371.107,2.159,2.159,0,0,0-.93.509,2.211,2.211,0,0,0-.464,1.861,4.289,4.289,0,0,0,.681,1.942,3.312,3.312,0,0,0,2.932,1.206h.037a2.936,2.936,0,0,0,1.826-.545,4.112,4.112,0,0,0,1.143-1.441,4.93,4.93,0,0,0,.429-1.129,2.312,2.312,0,0,0,.055-.616,1.165,1.165,0,0,1,.835,0,2.27,2.27,0,0,0,.055.616,4.9,4.9,0,0,0,.428,1.129A4.1,4.1,0,0,0,45.5,38.635a2.937,2.937,0,0,0,1.827.545h.039a3.309,3.309,0,0,0,2.93-1.206,4.289,4.289,0,0,0,.681-1.942A2.205,2.205,0,0,0,50.51,34.172Zm-3.05.193c.145,0,.291,0,.435,0l.312,0a5.554,5.554,0,0,1,1.2.087,1.381,1.381,0,0,1,.544.3,1.532,1.532,0,0,1,.215,1.189,3.491,3.491,0,0,1-.549,1.573,2.584,2.584,0,0,1-2.258.842h-.033a2.117,2.117,0,0,1-1.331-.377,3.3,3.3,0,0,1-.91-1.161,4.09,4.09,0,0,1-.361-.941,1.067,1.067,0,0,1,.329-1.133,2.65,2.65,0,0,1,1.459-.355l.188-.012C46.921,34.371,47.164,34.365,47.46,34.365Zm-7.876,4h-.033a2.585,2.585,0,0,1-2.259-.842,3.48,3.48,0,0,1-.549-1.573,1.537,1.537,0,0,1,.215-1.189,1.386,1.386,0,0,1,.545-.3,5.62,5.62,0,0,1,1.2-.087l.311,0c.146,0,.291,0,.436,0,.3,0,.54.007.764.022l.211.013a2.61,2.61,0,0,1,1.436.353,1.07,1.07,0,0,1,.33,1.133,4.178,4.178,0,0,1-.361.941,3.3,3.3,0,0,1-.91,1.161A2.122,2.122,0,0,1,39.584,38.365Z" transform="translate(1043.549 285.435)"/>
    <path id="Path_472" data-name="Path 472" class="cls-1" d="M51.221,22.464a1.368,1.368,0,0,0-.748-.4,14.1,14.1,0,0,0,.745-3.308,6.433,6.433,0,0,0-.659-4.025c-1.428-2.51-4.729-4.2-7.941-4.963-3.364-.8-7.038-.879-9.985.859a5.363,5.363,0,0,0-2.144,2.2l-.092.047c-3.649-.514-4.018,3.948-3.49,6a18.062,18.062,0,0,0,1.05,3.169,1.386,1.386,0,0,0-1.026.424,1.814,1.814,0,0,0-.447,1.356,11.174,11.174,0,0,0,1.548,4.186c.059.109.123.24.191.381.333.686.809,1.666,1.637,1.972a10.959,10.959,0,0,0,.553,1.461c1.341,2.879,4.985,4.97,8.664,4.97S46.4,34.7,47.74,31.822a10.922,10.922,0,0,0,.553-1.462c.828-.306,1.3-1.285,1.636-1.972.069-.141.131-.273.191-.381a11.148,11.148,0,0,0,1.549-4.185A1.82,1.82,0,0,0,51.221,22.464ZM48.56,27.151c-.072.131-.15.29-.232.461a4.686,4.686,0,0,1-.623,1.051.888.888,0,0,0-.971.662,9.843,9.843,0,0,1-.608,1.745c-1.047,2.247-4.078,3.942-7.051,3.942s-6-1.695-7.051-3.943a9.786,9.786,0,0,1-.607-1.743.89.89,0,0,0-.86-.669.859.859,0,0,0-.111.006,4.74,4.74,0,0,1-.623-1.051c-.082-.171-.16-.329-.232-.461A11.451,11.451,0,0,1,28.3,24.082a5.535,5.535,0,0,1,.745.754.889.889,0,0,0,1.048.25c.767-.339.547-1.581.44-2.218a29.062,29.062,0,0,1-.411-3.319c-.056-1.18-.041-2.662.87-3.549a2.306,2.306,0,0,1,1.971-.413A20.38,20.38,0,0,1,36.8,16.97a10.147,10.147,0,0,0,4.935.293c1.39-.213,3.12-1.107,4.534-.726,2.181.588,1.912,3.407,1.66,5.114-.123.832-.266,1.659-.389,2.49a.889.889,0,0,0,1.567.695,5.575,5.575,0,0,1,.747-.755A11.476,11.476,0,0,1,48.56,27.151Z" transform="translate(1047.927 296.735)"/>
  </g>
</svg>
