<svg xmlns="http://www.w3.org/2000/svg" viewBox="125.137 2281.109 58.863 59.002">
  <defs>
    <style>
      .cls-1 {
        fill: #1ba75f;
      }

      .cls-2 {
        fill: #edebe5;
      }
    </style>
  </defs>
  <g id="noun_108087_cc" transform="translate(122.069 2277.758)">
    <path id="Path_187" data-name="Path 187" class="cls-1" d="M60.951,22.471a13.918,13.918,0,0,1,6.485,9.073H83.178A29.514,29.514,0,0,0,66.084,7.573Z" transform="translate(-21.247 -1.55)"/>
    <path id="Path_188" data-name="Path 188" class="cls-2" d="M46.189,35.711A14,14,0,1,1,34.3,19.057L39.43,4.163a29.5,29.5,0,1,0,22.5,31.548Z"/>
  </g>
</svg>
