<svg xmlns="http://www.w3.org/2000/svg" viewBox="9971 -1197 50 50">
  <defs>
    <style>
      .cls-1, .cls-4 {
        fill: none;
      }

      .cls-1 {
        stroke: #cec8bf;
        stroke-width: 2px;
      }

      .cls-2 {
        fill: #d5d0c7;
      }

      .cls-3 {
        stroke: none;
      }
    </style>
  </defs>
  <g id="Group_249" data-name="Group 249" transform="translate(9280 -2006)">
    <g id="Ellipse_70" data-name="Ellipse 70" class="cls-1" transform="translate(691 809)">
      <ellipse class="cls-3" cx="25" cy="25" rx="25" ry="25"/>
      <ellipse class="cls-4" cx="25" cy="25" rx="24" ry="24"/>
    </g>
    <path id="Path_353" data-name="Path 353" class="cls-2" d="M26.9,5a5.927,5.927,0,0,0-4.559,9.727,9.109,9.109,0,0,0-4.488,7.881v2.465a.848.848,0,1,0,1.7,0V22.608A7.406,7.406,0,0,1,23.7,15.929a5.913,5.913,0,0,0,6.414,0,7.406,7.406,0,0,1,4.144,6.679v4.718A19.124,19.124,0,0,1,26.9,28.748a18.988,18.988,0,0,1-7.845-1.617.848.848,0,1,0-.707,1.537A20.654,20.654,0,0,0,26.9,30.445a20.653,20.653,0,0,0,8.552-1.776.848.848,0,0,0,.495-.769V22.608a9.109,9.109,0,0,0-4.488-7.881A5.927,5.927,0,0,0,26.9,5Zm0,1.7a4.241,4.241,0,1,1-4.241,4.241A4.228,4.228,0,0,1,26.9,6.7Z" transform="translate(689.074 816.278)"/>
  </g>
</svg>
