<svg xmlns="http://www.w3.org/2000/svg" viewBox="8538 524 9.904 16">
  <defs>
    <style>
      .cls-1 {
        opacity: 0.504;
      }
    </style>
  </defs>
  <g id="noun_1231765_cc" class="cls-1" transform="translate(8680 650)">
    <path id="Path_484" data-name="Path 484" d="M46.706,29.046a.38.38,0,0,0-.389.014l-5.239,3.368H38.524A1.525,1.525,0,0,0,37,33.952v6.1a1.525,1.525,0,0,0,1.524,1.524h2.555l5.239,3.368a.381.381,0,0,0,.587-.32V29.381A.381.381,0,0,0,46.706,29.046Zm-8.944,11v-6.1a.763.763,0,0,1,.762-.762h2.286v7.619H38.524A.762.762,0,0,1,37.762,40.047Zm8.381,3.873-4.571-2.939V33.017l4.571-2.939Z" transform="translate(-179 -155)"/>
  </g>
</svg>
