<svg xmlns="http://www.w3.org/2000/svg" viewBox="20152 -1584 35 35">
  <defs>
    <style>
      .cls-1, .cls-3 {
        fill: none;
      }

      .cls-1 {
        stroke: #10944f;
      }

      .cls-2 {
        stroke: none;
      }
    </style>
  </defs>
  <g id="Plus" transform="translate(19384 -2972)">
    <g id="Ellipse_64" data-name="Ellipse 64" class="cls-1" transform="translate(768 1388)">
      <circle class="cls-2" cx="17.5" cy="17.5" r="17.5"/>
      <circle class="cls-3" cx="17.5" cy="17.5" r="17"/>
    </g>
    <line id="Line_35" data-name="Line 35" class="cls-1" y2="16.371" transform="translate(785.5 1397.129)"/>
    <line id="Line_36" data-name="Line 36" class="cls-1" y2="16.371" transform="translate(793.871 1405.314) rotate(90)"/>
  </g>
</svg>
