<svg xmlns="http://www.w3.org/2000/svg" viewBox="9971 -1352 50 50">
  <defs>
    <style>
      .cls-1 {
        fill: #fff;
        stroke: #d5d0c7;
        stroke-width: 2px;
      }

      .cls-2 {
        fill: #cec8bf;
      }

      .cls-3 {
        stroke: none;
      }

      .cls-4 {
        fill: none;
      }
    </style>
  </defs>
  <g id="Group_279" data-name="Group 279" transform="translate(9291 -2228)">
    <g id="Ellipse_69" data-name="Ellipse 69" class="cls-1" transform="translate(680 876)">
      <circle class="cls-3" cx="25" cy="25" r="25"/>
      <circle class="cls-4" cx="25" cy="25" r="24"/>
    </g>
    <path id="Path_351" data-name="Path 351" class="cls-2" d="M24.5,3.059H17.713V2.281A2.283,2.283,0,0,0,15.433,0H9.73A2.283,2.283,0,0,0,7.45,2.281v.778H.664A.663.663,0,0,0,0,3.722V9.7a.663.663,0,0,0,.454.629l8.5,2.829V15.6a.663.663,0,0,0,.662.663l5.946.013h0a.663.663,0,0,0,.663-.663V13.155l8.485-2.828a.663.663,0,0,0,.453-.629V3.722A.663.663,0,0,0,24.5,3.059ZM8.776,2.281a.956.956,0,0,1,.955-.955h5.7a.956.956,0,0,1,.955.955v.778H8.776Zm1.5,12.653V13.34H14.9v1.6ZM23.836,9.219l-8.383,2.794H9.722l-8.4-2.795V4.385H23.836V9.219Z" transform="translate(692.654 889.621)"/>
    <path id="Path_352" data-name="Path 352" class="cls-2" d="M24.5,32.916a.663.663,0,0,0-.663.663v5.906a2.372,2.372,0,0,1-2.369,2.369H3.7a2.372,2.372,0,0,1-2.369-2.369V33.579a.663.663,0,0,0-1.326,0v5.906A3.7,3.7,0,0,0,3.695,43.18H21.466a3.7,3.7,0,0,0,3.695-3.695V33.579A.662.662,0,0,0,24.5,32.916Z" transform="translate(692.654 868.718)"/>
  </g>
</svg>
